digraph g {

        graph [
                rankdir = RL
                bgcolor= grey50
]

node [
                fontsize = "10"
                shape = box
                style = "rounded,filled"
        ]

A [label="pc 1"
    color = blue4
    fillcolor = deepskyblue1 ]  // node A

B [label=" pc 2"
    color = blue4
    fillcolor = deepskyblue1 ]  // node B

E [label="Comparaison"
    color = darkgreen
    fillcolor = darkolivegreen4]  // node E

C [label="Carte graphique" 
     color = violetred3
     fillcolor = coral]  // node C

D [label="processeur"
     color = violetred3
     fillcolor = coral]  // node D

F [label="carte mere" 
     color = violetred3
     fillcolor = coral]  // node F

G [label="alimentation" 
     color = violetred3
     fillcolor = coral]  // node G

H [label="memoire ram" 
     color = violetred3
     fillcolor = coral]  // node H

I [label="disque dur" 
     color = violetred3
     fillcolor = coral]  // node I

J [label="carte son" 
     color = violetred3
     fillcolor = coral]  // node J


"node0" [
label = "<f0>PC 2:........... | <f1>PC 1 :........... "
shape = "record"
     color = violetred3
     fillcolor = darksalmon
];
"node1" [
label = "<f0>PC 2:...........  | <f1>PC 1 :...........  "
shape = "record"
     color = violetred3
     fillcolor = darksalmon
];
"node2" [
label = "<f0>PC 2:...........  | <f1>PC 1 :...........  "
shape = "record"
     color = violetred3
     fillcolor = darksalmon
];
"node3" [
label = "<f0>PC 2:...........  | <f1>PC 1 :...........  "
shape = "record"
     color = violetred3
     fillcolor = darksalmon
];
"node4" [
label = "<f0>PC 2:...........  | <f1>PC 1 :...........  "
shape = "record"
     color = violetred3
     fillcolor = darksalmon
];
"node5" [
label = "<f0>PC 2:............  | <f1>PC 1 :...........  "
shape = "record"
     color = violetred3
     fillcolor = darksalmon
];
"node6" [
label = "<f0>PC 2:............ | <f1>PC 1 :...........  "
shape = "record"
     color = violetred3
     fillcolor = darksalmon
];


B->E [label="commands", fontcolor=darkgreen] // edge B->E
A->E
E->C
E->D
E->F
E->G
E->H
E->I
E->J

C-> node0
D-> node1
F-> node2
G-> node3
H-> node4
I-> node5
J-> node6
}
